<?xml version="1.0" encoding="UTF-8" standalone="no"?>
<svg
   xmlns:dc="http://purl.org/dc/elements/1.1/"
   xmlns:cc="http://creativecommons.org/ns#"
   xmlns:rdf="http://www.w3.org/1999/02/22-rdf-syntax-ns#"
   xmlns:svg="http://www.w3.org/2000/svg"
   xmlns="http://www.w3.org/2000/svg"
   xmlns:sodipodi="http://sodipodi.sourceforge.net/DTD/sodipodi-0.dtd"
   xmlns:inkscape="http://www.inkscape.org/namespaces/inkscape"
   width="850"
   height="975"
   viewBox="0 0 224.89584 257.96875"
   version="1.1"
   id="svg8"
   sodipodi:docname="person.svg"
   inkscape:version="1.0.2-2 (e86c870879, 2021-01-15)">
  <defs
     id="defs2" />
  <sodipodi:namedview
     id="base"
     pagecolor="#ffffff"
     bordercolor="#666666"
     borderopacity="1.0"
     inkscape:pageopacity="0.0"
     inkscape:pageshadow="2"
     inkscape:zoom="0.85958783"
     inkscape:cx="457.76515"
     inkscape:cy="527.82605"
     inkscape:document-units="mm"
     inkscape:current-layer="layer1"
     showgrid="false"
     showguides="false"
     inkscape:window-width="2560"
     inkscape:window-height="1361"
     inkscape:window-x="2551"
     inkscape:window-y="-9"
     inkscape:window-maximized="1"
     fit-margin-top="0"
     fit-margin-left="0"
     fit-margin-right="0"
     fit-margin-bottom="0"
     inkscape:document-rotation="0"
     units="px">
    <inkscape:grid
       type="xygrid"
       id="grid1178"
       originx="2.2632033"
       originy="-22.333651" />
  </sodipodi:namedview>
  <metadata
     id="metadata5">
    <rdf:RDF>
      <cc:Work
         rdf:about="">
        <dc:format>image/svg+xml</dc:format>
        <dc:type
           rdf:resource="http://purl.org/dc/dcmitype/StillImage" />
        <dc:title></dc:title>
      </cc:Work>
    </rdf:RDF>
  </metadata>
  <g
     inkscape:label="Layer 1"
     inkscape:groupmode="layer"
     id="layer1"
     transform="translate(2.2632032,-21.975534)">
    <g
       id="g876"
       transform="matrix(1.2188654,0,0,1.2188654,-71.854853,25.2308)"
       style="fill:none;stroke:#000000;stroke-opacity:1">
      <g
         id="g819"
         style="fill:none;stroke:#000000;stroke-opacity:1">
        <g
           id="g817"
           style="fill:none;stroke:#000000;stroke-opacity:1">
          <path
             id="path815"
             d="m 104.265,117.959 c -0.304,3.58 2.126,22.529 3.38,29.959 0.597,3.52 2.234,9.255 1.645,12.3 -0.841,4.244 -1.084,9.736 -0.621,12.934 0.292,1.942 1.211,10.899 -0.104,14.175 -0.688,1.718 -1.949,10.522 -1.949,10.522 -3.285,8.294 -1.431,7.886 -1.431,7.886 1.017,1.248 2.759,0.098 2.759,0.098 1.327,0.846 2.246,-0.201 2.246,-0.201 1.139,0.943 2.467,-0.116 2.467,-0.116 1.431,0.743 2.758,-0.627 2.758,-0.627 0.822,0.414 1.023,-0.109 1.023,-0.109 2.466,-0.158 -1.376,-8.05 -1.376,-8.05 -0.92,-7.088 0.913,-11.033 0.913,-11.033 6.004,-17.805 6.309,-22.53 3.909,-29.24 -0.676,-1.937 -0.847,-2.704 -0.536,-3.545 0.719,-1.941 0.195,-9.748 1.072,-12.848 1.692,-5.979 3.361,-21.142 4.231,-28.217 1.169,-9.53 -4.141,-22.308 -4.141,-22.308 -1.163,-5.2 0.542,-23.727 0.542,-23.727 2.381,3.705 2.29,10.245 2.29,10.245 -0.378,6.859 5.541,17.342 5.541,17.342 2.844,4.332 3.921,8.442 3.921,8.747 0,1.248 -0.273,4.269 -0.273,4.269 l 0.109,2.631 c 0.049,0.67 0.426,2.977 0.365,4.092 -0.444,6.862 0.646,5.571 0.646,5.571 0.92,0 1.931,-5.522 1.931,-5.522 0,1.424 -0.348,5.687 0.42,7.295 0.919,1.918 1.595,-0.329 1.607,-0.78 0.243,-8.737 0.768,-6.448 0.768,-6.448 0.511,7.088 1.139,8.689 2.265,8.135 0.853,-0.407 0.073,-8.506 0.073,-8.506 1.461,4.811 2.569,5.577 2.569,5.577 2.411,1.693 0.92,-2.983 0.585,-3.909 -1.784,-4.92 -1.839,-6.625 -1.839,-6.625 2.229,4.421 3.909,4.257 3.909,4.257 2.174,-0.694 -1.9,-6.954 -4.287,-9.953 -1.218,-1.528 -2.789,-3.574 -3.245,-4.789 -0.743,-2.058 -1.304,-8.674 -1.304,-8.674 -0.225,-7.807 -2.155,-11.198 -2.155,-11.198 -3.3,-5.282 -3.921,-15.135 -3.921,-15.135 l -0.146,-16.635 c -1.157,-11.347 -9.518,-11.429 -9.518,-11.429 -8.451,-1.258 -9.627,-3.988 -9.627,-3.988 -1.79,-2.576 -0.767,-7.514 -0.767,-7.514 1.485,-1.208 2.058,-4.415 2.058,-4.415 2.466,-1.891 2.345,-4.658 1.206,-4.628 -0.914,0.024 -0.707,-0.733 -0.707,-0.733 C 115.068,0.636 104.01,0 104.01,0 h -1.688 c 0,0 -11.063,0.636 -9.523,13.089 0,0 0.207,0.758 -0.715,0.733 -1.136,-0.03 -1.242,2.737 1.215,4.628 0,0 0.572,3.206 2.058,4.415 0,0 1.023,4.938 -0.767,7.514 0,0 -1.172,2.73 -9.627,3.988 0,0 -8.375,0.082 -9.514,11.429 l -0.158,16.635 c 0,0 -0.609,9.853 -3.922,15.135 0,0 -1.921,3.392 -2.143,11.198 0,0 -0.563,6.616 -1.303,8.674 -0.451,1.209 -2.021,3.255 -3.249,4.789 -2.408,2.993 -6.455,9.24 -4.29,9.953 0,0 1.689,0.164 3.909,-4.257 0,0 -0.046,1.693 -1.827,6.625 -0.35,0.914 -1.839,5.59 0.573,3.909 0,0 1.117,-0.767 2.569,-5.577 0,0 -0.779,8.099 0.088,8.506 1.133,0.555 1.751,-1.047 2.262,-8.135 0,0 0.524,-2.289 0.767,6.448 0.012,0.451 0.673,2.698 1.596,0.78 0.779,-1.608 0.429,-5.864 0.429,-7.295 0,0 0.999,5.522 1.933,5.522 0,0 1.099,1.291 0.648,-5.571 -0.073,-1.121 0.32,-3.422 0.369,-4.092 l 0.106,-2.631 c 0,0 -0.274,-3.014 -0.274,-4.269 0,-0.311 1.078,-4.415 3.921,-8.747 0,0 5.913,-10.488 5.532,-17.342 0,0 -0.082,-6.54 2.299,-10.245 0,0 1.69,18.526 0.545,23.727 0,0 -5.319,12.778 -4.146,22.308 0.864,7.094 2.53,22.237 4.226,28.217 0.886,3.094 0.362,10.899 1.072,12.848 0.32,0.847 0.152,1.627 -0.536,3.545 -2.387,6.71 -2.083,11.436 3.921,29.24 0,0 1.848,3.945 0.914,11.033 0,0 -3.836,7.892 -1.379,8.05 0,0 0.192,0.523 1.023,0.109 0,0 1.327,1.37 2.761,0.627 0,0 1.328,1.06 2.463,0.116 0,0 0.91,1.047 2.237,0.201 0,0 1.742,1.175 2.777,-0.098 0,0 1.839,0.408 -1.435,-7.886 0,0 -1.254,-8.793 -1.945,-10.522 -1.318,-3.275 -0.387,-12.251 -0.106,-14.175 0.453,-3.216 0.21,-8.695 -0.618,-12.934 -0.606,-3.038 1.035,-8.774 1.641,-12.3 1.245,-7.423 3.685,-26.373 3.38,-29.959 l 1.008,0.354 c 0.722,0.002 1.178,-0.351 1.178,-0.351 z"
             inkscape:connector-curvature="0"
             style="fill:none;stroke:#000000;stroke-opacity:1" />
        </g>
      </g>
      <g
         id="g821"
         style="fill:none;stroke:#000000;stroke-opacity:1" />
      <g
         id="g823"
         style="fill:none;stroke:#000000;stroke-opacity:1" />
      <g
         id="g825"
         style="fill:none;stroke:#000000;stroke-opacity:1" />
      <g
         id="g827"
         style="fill:none;stroke:#000000;stroke-opacity:1" />
      <g
         id="g829"
         style="fill:none;stroke:#000000;stroke-opacity:1" />
      <g
         id="g831"
         style="fill:none;stroke:#000000;stroke-opacity:1" />
      <g
         id="g833"
         style="fill:none;stroke:#000000;stroke-opacity:1" />
      <g
         id="g835"
         style="fill:none;stroke:#000000;stroke-opacity:1" />
      <g
         id="g837"
         style="fill:none;stroke:#000000;stroke-opacity:1" />
      <g
         id="g839"
         style="fill:none;stroke:#000000;stroke-opacity:1" />
      <g
         id="g841"
         style="fill:none;stroke:#000000;stroke-opacity:1" />
      <g
         id="g843"
         style="fill:none;stroke:#000000;stroke-opacity:1" />
      <g
         id="g845"
         style="fill:none;stroke:#000000;stroke-opacity:1" />
      <g
         id="g847"
         style="fill:none;stroke:#000000;stroke-opacity:1" />
      <g
         id="g849"
         style="fill:none;stroke:#000000;stroke-opacity:1" />
    </g>
    <g
       id="g876-1"
       transform="matrix(1.2188654,0,0,1.2188654,40.740652,25.612433)"
       style="fill:none;stroke:#000000;stroke-opacity:1">
      <g
         id="g819-6"
         style="fill:none;stroke:#000000;stroke-opacity:1">
        <g
           id="g817-5"
           style="fill:none;stroke:#000000;stroke-opacity:1">
          <path
             id="path815-3"
             d="m 104.265,117.959 c -0.304,3.58 2.126,22.529 3.38,29.959 0.597,3.52 2.234,9.255 1.645,12.3 -0.841,4.244 -1.084,9.736 -0.621,12.934 0.292,1.942 1.211,10.899 -0.104,14.175 -0.688,1.718 -1.949,10.522 -1.949,10.522 -3.285,8.294 -1.431,7.886 -1.431,7.886 l 11.33053,-0.17974 c 2.466,-0.158 -1.45353,-8.82526 -1.45353,-8.82526 -0.92,-7.088 0.913,-11.033 0.913,-11.033 6.004,-17.805 6.309,-22.53 3.909,-29.24 -0.676,-1.937 -0.847,-2.704 -0.536,-3.545 0.719,-1.941 0.195,-9.748 1.072,-12.848 1.692,-5.979 3.361,-21.142 4.231,-28.217 1.169,-9.53 -4.141,-22.308 -4.141,-22.308 -1.163,-5.2 0.542,-23.727 0.542,-23.727 2.381,3.705 2.29,10.245 2.29,10.245 -0.378,6.859 5.541,17.342 5.541,17.342 2.844,4.332 3.921,8.442 3.921,8.747 0,1.248 -0.273,4.269 -0.273,4.269 l 0.109,2.631 c 0.049,0.67 0.426,2.977 0.365,4.092 -0.444,6.862 0.646,5.571 0.646,5.571 0.92,0 1.931,-5.522 1.931,-5.522 0,1.424 -0.348,5.687 0.42,7.295 0.919,1.918 1.595,-0.329 1.607,-0.78 0.243,-8.737 0.768,-6.448 0.768,-6.448 0.511,7.088 1.139,8.689 2.265,8.135 0.853,-0.407 0.073,-8.506 0.073,-8.506 1.461,4.811 2.569,5.577 2.569,5.577 2.411,1.693 0.92,-2.983 0.585,-3.909 -1.784,-4.92 -1.839,-6.625 -1.839,-6.625 2.229,4.421 3.909,4.257 3.909,4.257 2.174,-0.694 -1.9,-6.954 -4.287,-9.953 -1.218,-1.528 -2.789,-3.574 -3.245,-4.789 -0.743,-2.058 -1.304,-8.674 -1.304,-8.674 -0.225,-7.807 -2.155,-11.198 -2.155,-11.198 -3.3,-5.282 -3.921,-15.135 -3.921,-15.135 l -0.146,-16.635 c -1.157,-11.347 -9.518,-11.429 -9.518,-11.429 -8.451,-1.258 -9.627,-3.988 -9.627,-3.988 -1.79,-2.576 -0.767,-7.514 -0.767,-7.514 1.485,-1.208 2.058,-4.415 2.058,-4.415 2.466,-1.891 2.345,-4.658 1.206,-4.628 -0.914,0.024 -0.707,-0.733 -0.707,-0.733 C 115.068,0.636 104.01,0 104.01,0 h -1.688 c 0,0 -11.063,0.636 -9.523,13.089 0,0 0.207,0.758 -0.715,0.733 -1.136,-0.03 -1.242,2.737 1.215,4.628 0,0 0.572,3.206 2.058,4.415 0,0 1.023,4.938 -0.767,7.514 0,0 -1.172,2.73 -9.627,3.988 0,0 -8.375,0.082 -9.514,11.429 l -0.158,16.635 c 0,0 -0.609,9.853 -3.922,15.135 0,0 -1.921,3.392 -2.143,11.198 0,0 -0.563,6.616 -1.303,8.674 -0.451,1.209 -2.021,3.255 -3.249,4.789 -2.408,2.993 -6.455,9.24 -4.29,9.953 0,0 1.689,0.164 3.909,-4.257 0,0 -0.046,1.693 -1.827,6.625 -0.35,0.914 -1.839,5.59 0.573,3.909 0,0 1.117,-0.767 2.569,-5.577 0,0 -0.779,8.099 0.088,8.506 1.133,0.555 1.751,-1.047 2.262,-8.135 0,0 0.524,-2.289 0.767,6.448 0.012,0.451 0.673,2.698 1.596,0.78 0.779,-1.608 0.429,-5.864 0.429,-7.295 0,0 0.999,5.522 1.933,5.522 0,0 1.099,1.291 0.648,-5.571 -0.073,-1.121 0.32,-3.422 0.369,-4.092 l 0.106,-2.631 c 0,0 -0.274,-3.014 -0.274,-4.269 0,-0.311 1.078,-4.415 3.921,-8.747 0,0 5.913,-10.488 5.532,-17.342 0,0 -0.082,-6.54 2.299,-10.245 0,0 1.69,18.526 0.545,23.727 0,0 -5.319,12.778 -4.146,22.308 0.864,7.094 2.53,22.237 4.226,28.217 0.886,3.094 0.362,10.899 1.072,12.848 0.32,0.847 0.152,1.627 -0.536,3.545 -2.387,6.71 -2.083,11.436 3.921,29.24 0,0 1.848,3.945 0.914,11.033 0,0 -3.836,8.82231 -1.379,8.98031 l 11.261,0.0247 c 0,0 1.839,0.408 -1.435,-7.886 0,0 -1.254,-8.793 -1.945,-10.522 -1.318,-3.275 -0.387,-12.251 -0.106,-14.175 0.453,-3.216 0.21,-8.695 -0.618,-12.934 -0.606,-3.038 1.035,-8.774 1.641,-12.3 1.245,-7.423 3.685,-26.373 3.38,-29.959 l 1.17469,-1.07964 z"
             inkscape:connector-curvature="0"
             style="fill:none;stroke:#000000;stroke-width:1.00011;stroke-miterlimit:4;stroke-dasharray:none;stroke-opacity:1"
             sodipodi:nodetypes="ccccccccccccccccccsccccccccccccccccccccccccccccccccccccccccccccccccccccccscccccccccccccccccccc" />
        </g>
      </g>
      <g
         id="g821-7"
         style="fill:none;stroke:#000000;stroke-opacity:1" />
      <g
         id="g823-3"
         style="fill:none;stroke:#000000;stroke-opacity:1" />
      <g
         id="g825-5"
         style="fill:none;stroke:#000000;stroke-opacity:1" />
      <g
         id="g827-1"
         style="fill:none;stroke:#000000;stroke-opacity:1" />
      <g
         id="g829-3"
         style="fill:none;stroke:#000000;stroke-opacity:1" />
      <g
         id="g831-5"
         style="fill:none;stroke:#000000;stroke-opacity:1" />
      <g
         id="g833-7"
         style="fill:none;stroke:#000000;stroke-opacity:1" />
      <g
         id="g835-0"
         style="fill:none;stroke:#000000;stroke-opacity:1" />
      <g
         id="g837-7"
         style="fill:none;stroke:#000000;stroke-opacity:1" />
      <g
         id="g839-3"
         style="fill:none;stroke:#000000;stroke-opacity:1" />
      <g
         id="g841-1"
         style="fill:none;stroke:#000000;stroke-opacity:1" />
      <g
         id="g843-8"
         style="fill:none;stroke:#000000;stroke-opacity:1" />
      <g
         id="g845-1"
         style="fill:none;stroke:#000000;stroke-opacity:1" />
      <g
         id="g847-9"
         style="fill:none;stroke:#000000;stroke-opacity:1" />
      <g
         id="g849-4"
         style="fill:none;stroke:#000000;stroke-opacity:1" />
      <path
         style="fill:none;stroke:#000000;stroke-width:0.410218;stroke-linecap:round;stroke-linejoin:miter;stroke-miterlimit:4;stroke-dasharray:none;stroke-opacity:1"
         d="m 86.610637,116.6532 c 6.279631,6.01865 13.942133,1.70511 15.605413,1.07667 1.18228,-1.3664 0.71219,-1.4565 1.72003,-0.0998 1.86963,0.97691 11.54758,5.55319 17.53574,-2.03339"
         id="path947"
         inkscape:connector-curvature="0"
         sodipodi:nodetypes="cccc" />
      <path
         style="fill:none;stroke:#000000;stroke-width:0.217073px;stroke-linecap:round;stroke-linejoin:miter;stroke-opacity:1"
         d="m 103.23119,116.58586 -0.01,-2.69137"
         id="path949"
         inkscape:connector-curvature="0"
         sodipodi:nodetypes="cc" />
      <path
         style="fill:none;stroke:#000000;stroke-width:0.410218;stroke-linecap:butt;stroke-linejoin:miter;stroke-miterlimit:4;stroke-dasharray:none;stroke-opacity:1"
         d="m -7.4143091,34.053894 c 0,0 -0.8707207,3.071357 6.42024935,2.687621 C 6.2969103,36.357779 5.9131765,36.522238 5.9131765,36.522238"
         id="path951"
         inkscape:connector-curvature="0" />
      <path
         style="fill:none;stroke:#000000;stroke-width:0.410218;stroke-linecap:butt;stroke-linejoin:miter;stroke-miterlimit:4;stroke-dasharray:none;stroke-opacity:1"
         d="m 28.985692,34.056895 c 0,0 0.870719,3.071357 -6.42025,2.687621 -7.29097,-0.383736 -6.907236,-0.219277 -6.907236,-0.219277"
         id="path951-5"
         inkscape:connector-curvature="0" />
    </g>
    <path
       style="fill:none;stroke:#000000;stroke-width:0.5;stroke-linecap:butt;stroke-linejoin:miter;stroke-miterlimit:4;stroke-dasharray:none;stroke-opacity:1"
       d="m 52.565706,169.00328 c -3.61779,-3.20827 -2.20038,-8.64168 -2.20038,-8.64168"
       id="path995"
       inkscape:connector-curvature="0"
       sodipodi:nodetypes="cc" />
    <path
       style="fill:none;stroke:#000000;stroke-width:0.5;stroke-linecap:butt;stroke-linejoin:miter;stroke-miterlimit:4;stroke-dasharray:none;stroke-opacity:1"
       d="m 54.889969,169.10143 c 3.239814,-2.49956 2.20038,-8.64168 2.20038,-8.64168"
       id="path995-0"
       inkscape:connector-curvature="0"
       sodipodi:nodetypes="cc" />
    <path
       style="fill:none;stroke:#000000;stroke-width:0.5;stroke-linecap:butt;stroke-linejoin:miter;stroke-miterlimit:4;stroke-dasharray:none;stroke-opacity:1"
       d="m 159.27917,92.288092 c 4.91369,-3.96875 3.77976,-14.174107 3.77976,-14.174107"
       id="path1012"
       inkscape:connector-curvature="0" />
    <path
       style="fill:none;stroke:#000000;stroke-width:0.5;stroke-linecap:butt;stroke-linejoin:miter;stroke-miterlimit:4;stroke-dasharray:none;stroke-opacity:1"
       d="m 173.15642,92.376232 c -4.91369,-3.96875 -3.77976,-14.174107 -3.77976,-14.174107"
       id="path1012-3"
       inkscape:connector-curvature="0" />
    <path
       style="fill:none;stroke:#000000;stroke-width:0.5;stroke-linecap:round;stroke-linejoin:miter;stroke-miterlimit:4;stroke-dasharray:none;stroke-opacity:1"
       d="m 51.22207,133.07009 1.135894,-1.20271 1.202713,1.06908"
       id="path1031"
       inkscape:connector-curvature="0" />
    <path
       style="fill:none;stroke:#000000;stroke-width:0.5;stroke-linecap:round;stroke-linejoin:miter;stroke-miterlimit:4;stroke-dasharray:none;stroke-opacity:1"
       d="m 167.00038,143.00018 0.0162,-4.25061 2.05038,-2.2785"
       id="path1033"
       inkscape:connector-curvature="0"
       sodipodi:nodetypes="ccc" />
    <path
       style="fill:none;stroke:#000000;stroke-width:0.5;stroke-linecap:round;stroke-linejoin:miter;stroke-miterlimit:4;stroke-dasharray:none;stroke-opacity:1"
       d="m 167.01659,138.74957 -2.13816,-2.53906"
       id="path1035"
       inkscape:connector-curvature="0" />
    <path
       style="fill:none;stroke:#000000;stroke-width:0.5;stroke-linecap:round;stroke-linejoin:miter;stroke-miterlimit:4;stroke-dasharray:none;stroke-opacity:1"
       d="m 51.79539,45.840008 1.703841,0.835217 1.637028,-0.801809"
       id="path1041"
       inkscape:connector-curvature="0"
       sodipodi:nodetypes="ccc" />
    <path
       style="fill:none;stroke:#000000;stroke-width:0.5;stroke-linecap:round;stroke-linejoin:miter;stroke-miterlimit:4;stroke-dasharray:none;stroke-opacity:1"
       d="m 50.152992,49.676634 c 0,0 0.61806,0.517835 1.085782,0.718287 1.035669,0.100226 3.992338,-7e-6 5.195051,-0.05012 0.601356,-0.300678 1.336347,-0.80181 1.336347,-0.80181"
       id="path1043"
       inkscape:connector-curvature="0"
       sodipodi:nodetypes="cccc" />
    <path
       style="fill:none;stroke:#000000;stroke-width:0.565;stroke-linecap:round;stroke-linejoin:miter;stroke-miterlimit:4;stroke-dasharray:none;stroke-opacity:1"
       d="m 46.806749,41.672124 c 2.33861,-1.603618 5.144939,-0.267272 5.144939,-0.267272"
       id="path1102"
       inkscape:connector-curvature="0"
       sodipodi:nodetypes="cc" />
    <path
       style="fill:none;stroke:#000000;stroke-width:0.565;stroke-linecap:round;stroke-linejoin:miter;stroke-miterlimit:4;stroke-dasharray:none;stroke-opacity:1"
       d="M 61.47731,41.863572 C 59.1387,40.259954 56.59964,41.395848 56.59964,41.395848"
       id="path1102-6"
       inkscape:connector-curvature="0"
       sodipodi:nodetypes="cc" />
    <path
       style="fill:none;stroke:#000000;stroke-width:0.5;stroke-linecap:butt;stroke-linejoin:miter;stroke-miterlimit:4;stroke-dasharray:none;stroke-opacity:1"
       d="m 154.45957,48.1005 c 4.53893,4.922375 5.31248,5.730325 8.31927,5.79714 3.00678,0.06682 6.96681,0.710907 9.24766,-0.133633 1.41798,-0.525043 6.47885,-5.65985 6.47885,-5.65985"
       id="path1119"
       inkscape:connector-curvature="0"
       sodipodi:nodetypes="ccsc" />
    <path
       style="fill:none;stroke:#000000;stroke-width:0.5;stroke-linecap:butt;stroke-linejoin:miter;stroke-miterlimit:4;stroke-dasharray:none;stroke-opacity:1"
       d="m 41.254637,41.184528 c 0,0 2.298519,2.219371 3.913518,-3.287208 1.901344,-6.482916 7.555773,-7.242249 16.524179,-5.249742 2.103478,3.310641 -0.476868,6.246648 4.825725,8.540606"
       id="path1121"
       inkscape:connector-curvature="0"
       sodipodi:nodetypes="cscc" />
    <path
       style="fill:none;stroke:#000000;stroke-width:0.5;stroke-linecap:butt;stroke-linejoin:miter;stroke-miterlimit:4;stroke-dasharray:none;stroke-opacity:1"
       d="m 132.48065,120.6741 c 2.26786,1.88988 4.7247,1.51191 4.7247,1.51191"
       id="path1123"
       inkscape:connector-curvature="0" />
    <path
       style="fill:none;stroke:#000000;stroke-width:0.5;stroke-linecap:round;stroke-linejoin:miter;stroke-miterlimit:4;stroke-dasharray:none;stroke-opacity:1"
       d="m 200.95655,121.77781 c -2.26786,1.88988 -4.7247,1.51191 -4.7247,1.51191"
       id="path1123-8"
       inkscape:connector-curvature="0" />
    <path
       style="fill:none;stroke:#000000;stroke-width:0.5;stroke-linecap:butt;stroke-linejoin:miter;stroke-miterlimit:4;stroke-dasharray:none;stroke-opacity:1"
       d="m 29.239151,117.63528 c -0.400905,3.87541 -2.80633,4.14268 -2.80633,4.14268"
       id="path1146"
       inkscape:connector-curvature="0" />
    <path
       style="fill:none;stroke:#000000;stroke-width:0.5;stroke-linecap:butt;stroke-linejoin:miter;stroke-miterlimit:4;stroke-dasharray:none;stroke-opacity:1"
       d="m 17.746561,113.22533 c -0.668174,5.61266 0.928728,6.38205 0.928728,6.38205"
       id="path1148"
       inkscape:connector-curvature="0"
       sodipodi:nodetypes="cc" />
    <path
       style="fill:none;stroke:#000000;stroke-width:0.5;stroke-linecap:butt;stroke-linejoin:miter;stroke-miterlimit:4;stroke-dasharray:none;stroke-opacity:1"
       d="m 78.649229,118.51976 c 0.400905,3.87541 2.80633,4.14268 2.80633,4.14268"
       id="path1146-2"
       inkscape:connector-curvature="0" />
    <path
       style="fill:none;stroke:#000000;stroke-width:0.5;stroke-linecap:butt;stroke-linejoin:miter;stroke-miterlimit:4;stroke-dasharray:none;stroke-opacity:1"
       d="m 90.141819,114.10981 c 0.668174,5.61266 -0.928728,6.38205 -0.928728,6.38205"
       id="path1148-3"
       inkscape:connector-curvature="0"
       sodipodi:nodetypes="cc" />
    <path
       style="fill:none;stroke:#000000;stroke-width:0.5;stroke-linecap:butt;stroke-linejoin:miter;stroke-miterlimit:4;stroke-dasharray:none;stroke-opacity:1"
       d="m 44.561483,52.58044 c 0,0 4.605396,4.900614 6.610077,5.215562 1.631563,0.256329 4.20829,0.221148 6.254382,-0.251754 1.092517,-0.252505 6.069972,-5.101893 6.069972,-5.101893"
       id="path1168"
       inkscape:connector-curvature="0"
       sodipodi:nodetypes="cssc" />
    <path
       style="fill:none;stroke:#000000;stroke-width:0.5;stroke-linecap:round;stroke-linejoin:miter;stroke-miterlimit:4;stroke-dasharray:none;stroke-opacity:1"
       d="m 145.35465,134.74476 2.61898,-3.07783"
       id="path1174"
       inkscape:connector-curvature="0" />
    <path
       style="fill:none;stroke:#000000;stroke-width:0.5;stroke-linecap:round;stroke-linejoin:miter;stroke-miterlimit:4;stroke-dasharray:none;stroke-opacity:1"
       d="m 187.62612,134.74842 -2.63566,-3.34876"
       id="path1176"
       inkscape:connector-curvature="0" />
    <path
       style="fill:none;stroke:#000000;stroke-width:0.5;stroke-linecap:butt;stroke-linejoin:miter;stroke-miterlimit:4;stroke-dasharray:none;stroke-opacity:1"
       d="m 34.120177,210.31826 c 1.469982,3.60814 2.738392,5.67933 4.548331,6.87884 0.942321,0.62451 1.945125,0.47159 3.981365,-0.13057 2.810415,-0.8311 5.254661,-8.07356 5.254661,-8.07356"
       id="path1180"
       inkscape:connector-curvature="0"
       sodipodi:nodetypes="cssc" />
    <path
       style="fill:none;stroke:#000000;stroke-width:0.5;stroke-linecap:butt;stroke-linejoin:miter;stroke-miterlimit:4;stroke-dasharray:none;stroke-opacity:1"
       d="m 145.70982,218.00297 3.40178,-4.7247"
       id="path1197"
       inkscape:connector-curvature="0" />
    <path
       style="fill:none;stroke:#000000;stroke-width:0.5;stroke-linecap:butt;stroke-linejoin:miter;stroke-miterlimit:4;stroke-dasharray:none;stroke-opacity:1"
       d="m 158.93898,220.08184 -3.02381,-6.04762"
       id="path1199"
       inkscape:connector-curvature="0" />
    <path
       style="fill:none;stroke:#000000;stroke-width:0.5;stroke-linecap:butt;stroke-linejoin:miter;stroke-miterlimit:4;stroke-dasharray:none;stroke-opacity:1"
       d="m 73.750931,209.96215 c -1.469982,3.60814 -2.604758,5.34524 -4.414697,6.54475 -0.942321,0.62451 -2.078759,0.80568 -4.114999,0.20352 -2.810416,-0.8311 -5.254661,-8.07356 -5.254661,-8.07356"
       id="path1180-8"
       inkscape:connector-curvature="0"
       sodipodi:nodetypes="cssc" />
    <path
       style="fill:none;stroke:#000000;stroke-width:0.5;stroke-linecap:butt;stroke-linejoin:miter;stroke-miterlimit:4;stroke-dasharray:none;stroke-opacity:1"
       d="m 187.13377,217.45609 -3.40178,-4.7247"
       id="path1197-2"
       inkscape:connector-curvature="0" />
    <path
       style="fill:none;stroke:#000000;stroke-width:0.5;stroke-linecap:butt;stroke-linejoin:miter;stroke-miterlimit:4;stroke-dasharray:none;stroke-opacity:1"
       d="m 173.90461,219.53496 3.02381,-6.04762"
       id="path1199-7"
       inkscape:connector-curvature="0" />
    <path
       style="fill:none;stroke:#000000;stroke-width:0.5;stroke-linecap:round;stroke-linejoin:miter;stroke-miterlimit:4;stroke-dasharray:none;stroke-opacity:1"
       d="m 38.763668,266.41098 c 0.472469,-0.18899 1.842632,-1.79539 3.685268,-2.31511"
       id="path1234"
       inkscape:connector-curvature="0"
       sodipodi:nodetypes="cc" />
    <path
       style="fill:none;stroke:#000000;stroke-width:0.5;stroke-linecap:round;stroke-linejoin:miter;stroke-miterlimit:4;stroke-dasharray:none;stroke-opacity:1"
       d="m 69.518024,266.83714 c -0.472469,-0.18899 -1.842632,-1.79539 -3.685268,-2.31511"
       id="path1234-6"
       inkscape:connector-curvature="0"
       sodipodi:nodetypes="cc" />
    <path
       style="fill:none;stroke:#000000;stroke-width:0.5;stroke-linecap:round;stroke-linejoin:miter;stroke-miterlimit:4;stroke-dasharray:none;stroke-opacity:1"
       d="m 176.18956,264.10749 c 0.80181,4.14268 -0.65,4.91189 -1.4518,7.85187 -0.80181,2.93994 1.88414,4.44809 1.88414,4.44809 l 6.42299,-0.28448 c 0,0 1.28198,-1.89757 -0.188,-4.83754 -1.46999,-2.93995 -4.20557,-5.3968 -4.33921,-7.40132"
       id="path1251"
       inkscape:connector-curvature="0"
       sodipodi:nodetypes="cccccc" />
    <path
       style="fill:none;stroke:#000000;stroke-width:0.5;stroke-linecap:round;stroke-linejoin:miter;stroke-miterlimit:4;stroke-dasharray:none;stroke-opacity:1"
       d="m 157.00614,263.91168 c -0.80181,4.14268 0.65,4.91189 1.4518,7.85187 0.80181,2.93994 -1.88414,4.44809 -1.88414,4.44809 l -6.42299,-0.28448 c 0,0 -1.28198,-1.89757 0.188,-4.83754 1.46999,-2.93995 4.20557,-5.3968 4.33921,-7.40132"
       id="path1251-9"
       inkscape:connector-curvature="0"
       sodipodi:nodetypes="cccccc" />
    <path
       style="fill:none;stroke:#000000;stroke-width:0.5;stroke-linecap:round;stroke-linejoin:miter;stroke-miterlimit:4;stroke-dasharray:none;stroke-opacity:1"
       d="m 32.759144,134.36313 c 2.865112,3.60338 5.067794,4.21471 5.904965,4.98165 0.875651,0.8022 1.433623,2.69447 1.433623,2.69447"
       id="path1270"
       inkscape:connector-curvature="0"
       sodipodi:nodetypes="csc" />
    <path
       style="fill:none;stroke:#000000;stroke-width:0.5;stroke-linecap:round;stroke-linejoin:miter;stroke-miterlimit:4;stroke-dasharray:none;stroke-opacity:1"
       d="m 75.030616,134.36679 c -2.865112,3.60338 -5.067794,4.21471 -5.904965,4.98165 -0.875651,0.8022 -1.433623,2.69447 -1.433623,2.69447"
       id="path1270-3"
       inkscape:connector-curvature="0"
       sodipodi:nodetypes="csc" />
  </g>
</svg>
