<svg width="268" height="132" xmlns="http://www.w3.org/2000/svg">
 <g>
  <title>Layer 1</title>
  <ellipse ry="66" rx="134" id="svg_1" cy="66" cx="134" stroke="#000" fill="#BBBBBB"/>
  <ellipse ry="50" rx="50" id="svg_2" cy="66" cx="134" stroke="#000" fill="#000000"/>
 </g>

</svg>